{
    "/public/a/css/lib/all.css": "/public/a/css/lib/all.css",
    "/public/a/css/minton/all.css": "/public/a/css/minton/all.css",
    "/public/a/css/custom/custom-admin.css": "/public/a/css/custom/custom-admin.css",
    "/public/a/js/header.js": "/public/a/js/header.js",
    "/public/a/js/lib/modernizr.min.js": "/public/a/js/lib/modernizr.min.js",
    "/public/a/js/footer.js": "/public/a/js/footer.js",
    "/public/a/js/custom.js": "/public/a/js/custom.js",
    "/public/a/js/vue/vue.js": "/public/a/js/vue/vue.js",
    "/public/a/js/vue/vue.min.js": "/public/a/js/vue/vue.min.js",
    "/public/a/js/vue/all.js": "/public/a/js/vue/all.js",
    "/public/p/css/lib/lib.css": "/public/p/css/lib/lib.css",
    "/public/p/css/custom.css": "/public/p/css/custom.css",
    "/public/p/js/header.js": "/public/p/js/header.js",
    "/public/p/js/lib/history.js": "/public/p/js/lib/history.js",
    "/public/p/js/lib/history.adapter.js": "/public/p/js/lib/history.adapter.js",
    "/public/p/js/footer.js": "/public/p/js/footer.js"
}
